{
  "iisSettings": {
    "windowsAuthentication": false,
    "anonymousAuthentication": true,
    "iisExpress": {
      "applicationUrl": "http://localhost:7373/",
      "sslPort": 44398
    }
  },
  "profiles": {
    "IIS Express": {
      "commandName": "IISExpress",
      "launchBrowser": true,
      "environmentVariables": {
        "ASPNETCORE_ENVIRONMENT": "Production"
      }
    },
    "Minima.TaskScheduler.Console": {
      "commandName": "Project",
      "commandLineArgs": "--tasktype 1",
      "environmentVariables": {
        "ASPNETCORE_ENVIRONMENT": "Production"
      },
      "applicationUrl": "https://localhost:5201;http://localhost:5200"
    }
  }
}